<svg xmlns='http://www.w3.org/2000/svg' width='70' height='70' viewBox='0 0 70 70' preserveAspectRatio='xMinYMin slice'>
    <rect width='70' height='70' fill='#bbd817'/>
    <g transform='rotate(45)'>
        <rect y='42' width='99' height='7' fill='#a9ce00'/>
        <rect y='28' width='99' height='7' fill='#a9ce00'/>
        <rect y='14' width='99' height='7' fill='#a9ce00'/>
        <rect width='99' height='7' fill='#a9ce00'/>
        <rect y='-14' width='99' height='7' fill='#a9ce00'/>
        <rect y='-28' width='99' height='7' fill='#a9ce00'/>
        <rect y='-42' width='99' height='7' fill='#a9ce00'/>
    </g>
</svg>